[
    { "name": "Hans Lloyd Reyes", "title": "Project Manager", "quote": "'More is lost by indecision than wrong decision'", "imageFileName": "../assets/images/hans.jpg", "facebook": "https://www.facebook.com/HansReyes30", "linkedIn": "https://www.linkedin.com/in/hans-lloyd-reyes-094398195/", "twitter": "https://twitter.com" },
    { "name": "Derek Isabelo", "title": "DevOps Engineer", "quote": "'If you're going through hell, keep going.'","imageFileName": "../assets/images/derek.jpg", "facebook": "https://www.facebook.com/dankMarshmallow", "linkedIn": "https://linkedIn.com", "twitter": "https://twitter.com" },
    { "name": "Bustin Louie Lo", "title": "Backend Developer", "quote": "'Be the person your dog thinks you are.'","imageFileName": "../assets/images/justin.jpg", "facebook": "https://www.facebook.com", "linkedIn": "https://linkedIn.com", "twitter": "https://twitter.com" },
    { "name": "Trisha Andaya", "title": "QA Tester", "quote": "'Don't let your dreams be dreams.'","imageFileName": "../assets/images/trisha.jpg", "facebook": "https://www.facebook.com", "linkedIn": "linkedIn.com", "twitter": "https://twitter.com" },
    { "name": "Darren Franz", "title": "Mafia Boss", "quote": "'Don't panic, it's organic.'","imageFileName": "../assets/images/darren.jpg", "facebook": "https://www.facebook.com/franzxsu", "linkedIn": "linkedIn.com", "twitter": "https://twitter.com/franzxsu_" },
    { "name": "Rey John Agbayani", "title": "Frontend Developer", "quote": "'You miss every shot you don't take.'","imageFileName": "../assets/images/rey.jpg", "facebook": "https://www.facebook.com/reybansbanned", "linkedIn": "https://linkedIn.com", "twitter": "https://x.com/luper_cali?t=yqKuLIEyMF5uRwRxioe7Bw&s=07" },
    { "name": "Aeronn Charles Camza", "title": "UI/UX Designer", "quote": "'The way to get started is to quit talking and begin doing.'","imageFileName": "../assets/images/aeronn.jpg", "facebook": "https://www.facebook.com/Hyzainne", "linkedIn": "https://linkedIn.com", "twitter": "https://x.com/aexzaea?t=-tUL69x_q8NVM-XwAVUdBw&s=09" }
]
